%YAML 1.1
%TAG !u! tag:unity3d.com,2011:
--- !u!114 &-659699695866601932
MonoBehaviour:
  m_ObjectHideFlags: 0
  m_CorrespondingSourceObject: {fileID: 0}
  m_PrefabInstance: {fileID: 0}
  m_PrefabAsset: {fileID: 0}
  m_GameObject: {fileID: 0}
  m_Enabled: 1
  m_EditorHideFlags: 0
  m_Script: {fileID: 11500000, guid: ed912223f7b3af74d8e196b2a4e662b3, type: 3}
  m_Name: 
  m_EditorClassIdentifier: 
  DepthBufferFormat: 1
  UseSharedDepthBuffer: 1
--- !u!114 &11400000
MonoBehaviour:
  m_ObjectHideFlags: 0
  m_CorrespondingSourceObject: {fileID: 0}
  m_PrefabInstance: {fileID: 0}
  m_PrefabAsset: {fileID: 0}
  m_GameObject: {fileID: 0}
  m_Enabled: 1
  m_EditorHideFlags: 0
  m_Script: {fileID: 11500000, guid: e679265d16d650945812b915bb9d5cc3, type: 3}
  m_Name: Windows MR Package Settings
  m_EditorClassIdentifier: 
  Keys: 010000000e000000
  Values:
  - {fileID: 3133235992435424770}
  - {fileID: -659699695866601932}
  BuildValues:
  - {fileID: 3337712391904959016}
--- !u!114 &3133235992435424770
MonoBehaviour:
  m_ObjectHideFlags: 0
  m_CorrespondingSourceObject: {fileID: 0}
  m_PrefabInstance: {fileID: 0}
  m_PrefabAsset: {fileID: 0}
  m_GameObject: {fileID: 0}
  m_Enabled: 1
  m_EditorHideFlags: 0
  m_Script: {fileID: 11500000, guid: ed912223f7b3af74d8e196b2a4e662b3, type: 3}
  m_Name: 
  m_EditorClassIdentifier: 
  DepthBufferFormat: 0
  UseSharedDepthBuffer: 0
--- !u!114 &3337712391904959016
MonoBehaviour:
  m_ObjectHideFlags: 0
  m_CorrespondingSourceObject: {fileID: 0}
  m_PrefabInstance: {fileID: 0}
  m_PrefabAsset: {fileID: 0}
  m_GameObject: {fileID: 0}
  m_Enabled: 1
  m_EditorHideFlags: 0
  m_Script: {fileID: 11500000, guid: 3a6c5bd16b42a1542ad52d1d47746bdb, type: 3}
  m_Name: 
  m_EditorClassIdentifier: 
  UsePrimaryWindowForDisplay: 1
  HolographicRemoting: 0
